<svg width="14" height="14" viewBox="0 0 14 14" fill="none" xmlns="http://www.w3.org/2000/svg">
<path d="M12.9213 0L14 1.07868L9.65491 5.41617C10.4677 6.586 10.5817 7.99132 9.89799 8.90287L5.09712 4.10201C6.00868 3.41834 7.414 3.53228 8.58383 4.34509L12.9213 0ZM2.71948 11.2805C1.19262 9.75366 0.258275 7.93055 0 6.22897L3.707 4.64135L9.35865 10.293L7.77103 14C6.06945 13.7417 4.24634 12.8074 2.71948 11.2805Z" fill="#F2521C"/>
</svg>
