<svg width="29" height="39" viewBox="0 0 29 39" fill="none" xmlns="http://www.w3.org/2000/svg">
<path fill-rule="evenodd" clip-rule="evenodd" d="M4.64913 18.9727V35.5597H26.1703V32.8696H15.4097C15.053 32.8696 14.7109 32.7279 14.4586 32.4756C14.2064 32.2234 14.0646 31.8813 14.0646 31.5245V20.7639C14.0646 20.4072 14.2064 20.0651 14.4586 19.8128C14.7109 19.5606 15.053 19.4189 15.4097 19.4189H26.1703V16.7287H16.0786L18.2076 14.0386H27.5154C27.8721 14.0386 28.2142 14.1803 28.4665 14.4325C28.7187 14.6848 28.8605 15.0269 28.8605 15.3836V36.9048C28.8605 37.2616 28.7187 37.6037 28.4665 37.8559C28.2142 38.1082 27.8721 38.2499 27.5154 38.2499H3.30406C2.94732 38.2499 2.6052 38.1082 2.35295 37.8559C2.1007 37.6037 1.95898 37.2616 1.95898 36.9048V16.1121L4.64913 18.9727ZM16.7548 30.1795V22.109H26.1703V30.1795H16.7548ZM23.4802 24.7992H19.4449V27.4893H23.4802V24.7992Z" fill="#F2521C"/>
<path d="M6.66226 10.2844L1.03809 10.2844L0.824023 10.2844L0.961392 10.4486L9.80708 21.0202L9.88377 21.1119L9.96047 21.0202L18.8062 10.4485L18.9435 10.2844L18.7295 10.2844L13.1058 10.2844L13.1058 8.37073L13.1058 8.37069C13.1051 6.738 13.5658 5.13597 14.4382 3.73777C15.3106 2.33953 16.5618 1.19817 18.0568 0.437457L18.3725 0.276799L18.0193 0.248649C17.7386 0.226266 17.4549 0.216115 17.1685 0.216115C11.4032 0.216115 6.71772 4.71148 6.66226 10.2844ZM10.8244 12.398L10.8244 12.498L10.9244 12.498L14.1529 12.498L9.88377 17.5995L5.61465 12.498L8.84311 12.498L8.94311 12.498L8.94311 12.398L8.94311 10.3844L8.94311 10.3843C8.94178 9.24159 9.19562 8.11201 9.68738 7.0728C10.122 6.15425 10.7336 5.32538 11.4881 4.62995C11.056 5.80854 10.8244 7.06942 10.8244 8.37073L10.8244 12.398Z" fill="#F2521C" stroke="#F2521C" stroke-width="0.2"/>
</svg>
