<svg width="24" height="26" viewBox="0 0 24 26" fill="none" xmlns="http://www.w3.org/2000/svg">
<path fill-rule="evenodd" clip-rule="evenodd" d="M6.17977 6.17928H0.887331C0.429607 6.17928 0.0290985 6.57979 0.000490189 7.03751V13.2168C0.000490189 13.7031 0.400999 14.075 0.858723 14.075H1.00176V24.3738C1.00176 24.8602 1.40227 25.2321 1.85999 25.2321H21.5135C21.9999 25.2321 22.3718 24.8316 22.3718 24.3738V14.1036H22.5148C23.0011 14.1036 23.373 13.7031 23.373 13.2454V7.03751C23.373 6.55118 22.9725 6.17928 22.5148 6.17928H17.2224C17.3654 6.06485 17.5085 5.95042 17.6229 5.83599C19.0247 4.43421 19.1105 2.2028 17.8231 0.915449C17.251 0.314686 16.4214 0 15.5631 0C14.5905 0 13.6178 0.400509 12.9026 1.1157C12.5307 1.459 12.073 2.08837 11.7011 2.83217C11.3006 2.11698 10.8714 1.4876 10.4995 1.1157C9.78435 0.400509 8.81169 0 7.83902 0C6.98079 0 6.17977 0.314686 5.57901 0.915449C4.26305 2.2028 4.34887 4.4056 5.77926 5.83599C5.89369 5.95042 6.03673 6.06485 6.17977 6.17928ZM12.6212 6.05218C12.5927 6.00604 12.5593 5.95201 12.5593 5.8646V5.57852C12.6451 4.72028 13.3031 3.14686 14.1327 2.31723C14.5332 1.91672 15.0768 1.68786 15.5917 1.68786C15.9922 1.68786 16.3927 1.85951 16.6502 2.11698C17.3082 2.74635 17.1938 3.89066 16.45 4.63446C15.7348 5.32105 14.0755 6.17928 13.0456 6.17928C12.8168 6.17928 12.6737 6.12207 12.6451 6.09346C12.6384 6.07995 12.63 6.06644 12.6212 6.05218ZM9.29802 2.31723C10.1276 3.14686 10.7856 4.72028 10.8714 5.57852V5.8646C10.8714 5.95042 10.8428 6.03624 10.7856 6.09346C10.7284 6.12207 10.614 6.17928 10.3851 6.17928C9.35523 6.17928 7.69598 5.34966 6.98079 4.63446C6.23698 3.89066 6.15116 2.74635 6.78053 2.11698C7.038 1.8309 7.4099 1.68786 7.83902 1.68786C8.35396 1.68786 8.89751 1.91672 9.29802 2.31723ZM20.6839 13.7551V23.487H10.8428H2.71823V13.7066C2.67682 13.3977 2.55424 13.256 2.21759 13.0469C1.9555 12.8784 1.76273 12.7489 1.71696 12.3872V7.89575H10.3565H13.0456H21.6852C21.6852 7.89575 21.6907 11.1428 21.6852 11.5289C21.684 11.6139 21.686 11.7033 21.688 11.7944C21.6953 12.1173 21.703 12.4595 21.5683 12.6851C21.2764 13.1742 20.6839 13.1048 20.6839 13.7551Z" fill="white"/>
<path d="M21.5129 13.7451C21.9992 13.7451 22.3711 13.3446 22.3711 12.8868L22.5 12H20.6832H10.8422H2.71755H1.00108L1.00843 13C1.06482 13.4297 1.43781 13.7451 1.85931 13.7451H21.5129Z" fill="white"/>
</svg>
