<svg width="28" height="28" viewBox="0 0 28 28" fill="none" xmlns="http://www.w3.org/2000/svg">
<path d="M12.8877 0C19.4988 0 24.8643 5.3655 24.8643 11.9766C24.8643 18.5876 19.4988 23.9531 12.8877 23.9531C6.27663 23.9531 0.911133 18.5876 0.911133 11.9766C0.911133 5.3655 6.27663 0 12.8877 0ZM12.8877 21.2917C18.0336 21.2917 22.2028 17.1225 22.2028 11.9766C22.2028 6.8293 18.0336 2.66146 12.8877 2.66146C7.74043 2.66146 3.57259 6.8293 3.57259 11.9766C3.57259 17.1225 7.74043 21.2917 12.8877 21.2917ZM24.1789 21.3861L27.9436 25.1495L26.0606 27.0324L22.2973 23.2678L24.1789 21.3861Z" fill="black"/>
</svg>
