<svg width="23" height="16" viewBox="0 0 23 16" fill="none" xmlns="http://www.w3.org/2000/svg">
<path fill-rule="evenodd" clip-rule="evenodd" d="M21.1593 11.7234L12.1037 6.1243V5.70364C12.1037 5.45544 12.2323 5.25469 12.5097 5.07401C12.5435 5.0512 12.5845 5.02747 12.6293 5.00101C13.0691 4.73456 13.9843 4.18067 13.9843 2.93237C13.9843 1.63662 12.903 0.641085 11.8555 0.428473C10.7532 0.202173 9.75396 0.466798 9.10244 1.17216C8.50931 1.81365 8.34324 2.34746 8.30765 3.21433C8.30492 3.2773 8.30309 3.41235 8.30126 3.54375C8.30035 3.72625 8.66444 3.87407 9.1143 3.87407H9.27673C9.72659 3.87407 10.0916 3.72716 10.0925 3.54557C10.0934 3.39501 10.0943 3.24354 10.0952 3.21525C10.1208 2.61665 10.2832 2.26534 10.9019 2.14215C11.2861 2.0655 11.7012 2.17135 11.9449 2.40677C12.0544 2.51262 12.1128 2.69695 12.0973 2.88675C12.0863 3.01359 12.0316 3.25084 11.7888 3.416L11.0132 3.93704C10.5177 4.25002 10.3069 4.62506 10.3069 5.18899V6.12612L1.34254 11.7042C0.0139406 12.5127 0.288603 13.8924 0.404491 14.2966C0.511253 14.6635 0.994878 15.8643 2.75509 15.8643H19.8581C21.1018 15.8643 21.8884 15.0659 22.1174 14.2738C22.3556 13.4453 22.0983 12.2691 21.1593 11.7234ZM20.2395 13.6716C20.1966 13.8203 20.0579 13.98 19.8325 13.98C19.8316 13.98 19.8316 13.98 19.8316 13.98H2.73319C2.49594 13.9791 2.36272 13.8249 2.32074 13.6944C2.26599 13.5256 2.33625 13.3531 2.49777 13.2409L11.2614 7.82611L20.0725 13.2637C20.2906 13.3978 20.2614 13.594 20.2395 13.6716Z" fill="black"/>
</svg>
