<svg width="21" height="23" viewBox="0 0 21 23" fill="none" xmlns="http://www.w3.org/2000/svg">
<path fill-rule="evenodd" clip-rule="evenodd" d="M5.44721 5.74311H0.781775C0.378278 5.74311 0.0252186 6.09617 0 6.49966V11.9469C0 12.3756 0.353059 12.7034 0.756556 12.7034H0.88265V21.7821C0.88265 22.2108 1.23571 22.5387 1.63921 22.5387H18.9644C19.3931 22.5387 19.7209 22.1856 19.7209 21.7821V12.7286H19.847C20.2757 12.7286 20.6036 12.3756 20.6036 11.9721V6.49966C20.6036 6.07095 20.2505 5.74311 19.847 5.74311H15.1816C15.3077 5.64223 15.4338 5.54136 15.5346 5.44049C16.7703 4.20478 16.846 2.23773 15.7112 1.10289C15.2068 0.573303 14.4755 0.295898 13.7189 0.295898C12.8615 0.295898 12.004 0.648958 11.3736 1.27942C11.0457 1.58205 10.6422 2.13685 10.3144 2.79254C9.96133 2.16207 9.58305 1.60726 9.25521 1.27942C8.62475 0.648958 7.76732 0.295898 6.90988 0.295898C6.15333 0.295898 5.44721 0.573303 4.91762 1.10289C3.75756 2.23773 3.83322 4.17956 5.09415 5.44049C5.19502 5.54136 5.32112 5.64223 5.44721 5.74311ZM11.1255 5.63107C11.1004 5.59039 11.0709 5.54276 11.0709 5.4657V5.21352C11.1466 4.45696 11.7266 3.06994 12.458 2.3386C12.811 1.98554 13.2902 1.78379 13.7441 1.78379C14.0972 1.78379 14.4502 1.93511 14.6772 2.16207C15.2572 2.71688 15.1564 3.72562 14.5007 4.38131C13.8702 4.98655 12.4075 5.74311 11.4997 5.74311C11.2979 5.74311 11.1718 5.69267 11.1466 5.66745C11.1406 5.65555 11.1333 5.64364 11.1255 5.63107ZM8.19603 2.3386C8.92737 3.06994 9.5074 4.45696 9.58305 5.21352V5.4657C9.58305 5.54136 9.55783 5.61701 9.5074 5.66745C9.45696 5.69267 9.35608 5.74311 9.15434 5.74311C8.24647 5.74311 6.78379 5.01177 6.15333 4.38131C5.49764 3.72562 5.42199 2.71688 5.9768 2.16207C6.20376 1.90989 6.53161 1.78379 6.90988 1.78379C7.36382 1.78379 7.84297 1.98554 8.19603 2.3386ZM18.233 12.4214V21.0003H2.39576V12.3786C2.35925 12.1064 2.2512 11.9815 1.95444 11.7971C1.7234 11.6486 1.55346 11.5344 1.51311 11.2155V7.25622H19.1157C19.1157 7.25622 19.1205 10.1186 19.1157 10.459C19.1146 10.5338 19.1164 10.6127 19.1182 10.693C19.1246 10.9776 19.1314 11.2793 19.0127 11.4782C18.7553 11.9093 18.233 11.8481 18.233 12.4214Z" fill="#4F4F4F"/>
<path d="M18.9638 12.4126C19.3925 12.4126 19.7203 12.0595 19.7203 11.656L19.8339 10.8742H0.88205L0.88853 11.7558C0.938233 12.1346 1.26703 12.4126 1.63861 12.4126H18.9638Z" fill="#4F4F4F"/>
</svg>
